@sdi126,-0.11930685977311828,0.11150344958753054,0.16364365196882455,0.004041005613196638,-0.1286875094267854,-0.014563187388591498,0.011697008596696968,-0.17114057613463743,-0.012651441612917931,0.0011601469626838447,true
DC.,-0.06598450688442369,0.09256030306138618,-0.19818211468601377,-0.18220512966049093,-0.09236910286642706,-3.3750745738818106E-4,-0.08711103142621467,0.003156279090697403,-0.08857961046513284,0.10205471892763872,true
Auctiva,0.07766606165990034,-0.19007996450599965,0.05677483291090042,0.03443096666811665,0.12710825133684564,0.12695360987029847,-0.12830101947537753,0.016246813759110083,0.08470416125742991,0.03129179749378749,false
processed.,0.008500023191128936,-0.020613035064104144,0.08874084186631137,0.16468141079485799,-0.08824845295644322,-0.008928066688041624,0.03998118166813742,0.15032554082645586,0.08049888934873022,-0.042200798185130874,false
Ways&quot;,0.04031748680185716,-0.06726742633746007,0.09322867955316985,0.006677453429476295,-0.03745950881320823,-0.08280901002556695,-0.015283260867758037,-0.04133974357305301,-0.1875055440205677,-0.13795653468194802,true
GrEat!!!!,0.14636864356120138,0.1267416634355698,-0.08750793951951065,-0.1258788006823043,-0.1023289615399941,-0.06735255220358301,0.04973576913438327,0.07168343302382242,0.19272641725171652,0.010569643889298347,true
Blink-182,-0.10429561241208199,-0.1462329990750009,0.14087749046556253,0.13364498389453652,0.09575235386845864,-0.1290251899335904,-0.046398823621038074,-0.016189123465054252,-0.2897183160235048,-0.12536542808442558,true
Bad-Ren-Pin,-0.05354241046027013,0.06887210598938259,0.029069450850438,0.00734202854160119,-0.04643250464427942,-0.0229835256121468,-0.026299683358330158,0.0023047164011646467,-0.0490532607089714,0.08651027349920483,true
CLI,-0.07230892481748258,-0.1459528078058616,-2.745810166751078E-4,0.07488253712109535,0.09708274152332208,-0.23202721995086606,-0.16150391615383108,-0.12887310293548623,0.08518225874446182,-0.14583689237566155,false
drill...we'd,-0.017176622232839757,0.06266876370753072,-0.11434800141898586,-0.09116122669284589,0.12531683484381684,-0.03852935759281401,0.1521501679610108,-9.320676193654261E-4,0.005990493110172751,-0.1067410284449234,true
@JulieBMack,0.06529265644683707,-0.015975635573600173,-0.21774585731619978,0.27050269027484736,-0.014902860411982575,-0.029150808041649223,-0.030410975883896726,-0.12434794137941226,-0.13652689447207475,0.05268856118466463,true
Joking^^,-0.1270362850603364,0.015565325973360881,-0.06375995370783705,0.18010592072688505,-0.1114481519924852,0.01282605550931678,0.12807429787069713,0.02147942359999359,-0.06939711803337507,0.05804186082078452,true
@JamesARay,0.04749781434435859,-0.019697022036760707,-0.15379948617567285,0.04301122257235721,-0.070226689963334,0.1367600897887065,-0.18555499994258745,-0.15834603250318305,0.026519195521932076,0.030510823545603583,true
grizzly-hudson-1.9.15a.jar,0.009590289790569702,0.05618707571585623,-0.11281461483881697,0.053170320173466304,-0.17106223869548587,0.07454036259799858,-0.10521232441198192,-0.10096640234507305,0.013849280403687722,-0.10749249837649975,false
commited,0.13883796347629487,0.08428592327848745,-0.12321996558475486,-0.23460257038271287,-0.2268862141196002,-0.013348391947974792,0.04311498424580264,0.010956084645260619,0.08827536772000766,0.021629628307641615,false
Balsa,-0.05724872217694046,-0.052060084728917475,0.04833287654943302,0.020752881099745768,-0.035347748273131016,-0.0030010803318922825,-0.06516175874607377,0.09894674180610871,0.05377931707788235,-0.07630480851001949,true
100-day,-0.05887354413982009,0.1069810803898226,0.18449852605909145,0.10037537452473669,-0.1594177699424988,-0.1768734954453334,0.008227018557089726,0.04822442341319247,0.012281863361452835,0.04869371440161699,true
prayers-,0.045470506299026436,0.10147348075632134,-0.10577040743727706,0.12445742419773612,0.0837939007758842,0.01609672910624721,-0.023264177462831617,0.012229373753103647,0.09250505268249701,-0.13251707654090805,true
@7aSete,-0.033814684176213215,-0.024623607756787,-0.08373120219466083,0.10108977941948541,0.004499263243813592,-0.012786849813663634,-0.046924257195840605,0.005624761067416513,-0.029161576158668937,-0.12112074815364823,true
GP's,-0.01853603920781355,0.02245387039948651,0.03827710176164936,-0.1789681483499036,0.041239289060326555,-0.0042689514350545054,-0.17317682125884534,0.08593090660728551,0.1678342255507294,0.0722711617683179,false
u-,-0.029176988855159375,0.057930500843471344,-0.10887812421096967,0.14376031283772747,0.02380669275288555,-0.04923665753232111,0.11824207736075863,0.011601339695869716,0.008427105234867558,0.12924342110645168,false
tge,0.09700841948515082,0.1738405597515428,0.1490231851731545,-0.09201287192505485,-0.10184274952799745,0.04811963299824479,0.02017726368949529,-0.06686527135664375,0.05196126984468501,6.51429414140703E-4,false
sk,-0.06832072382207872,-0.058299570199861844,-0.14038342846968574,0.17818899077508096,0.0598261101606114,-0.09664022716785314,0.12861409423779743,0.0163091726747319,0.08441989216932855,0.06286198072387973,false
empanadas,0.061848254328693376,0.01657153153267903,0.025986741260834993,-0.08760553378413022,-0.06889853665711215,-0.07976035290051106,-0.12517187873082375,0.016488832978309397,-0.044816365004776065,0.060657941652009675,false
0-0,-0.055664635376608415,0.041310631176624354,0.09691264120797323,0.05768524934853128,0.14162967454675265,-0.028704703039285913,0.06229948747110951,0.08897561687560358,0.09740608586903307,-0.04768261705215374,true
@andyclemmensen,0.01573744617947731,-0.17377362997205595,0.2257319001560312,0.18985419297880987,0.007624603092305609,-0.01272527080049685,-0.12313595237241824,0.019672197619312742,-0.17478832631060387,-0.023955053864575655,true
info???,-0.24331922619496454,0.060466669916774185,-0.336817259576238,-3.0402638466555786E-5,0.049011892195359064,-0.07766920095517596,0.04272047233232314,0.11122176042696746,0.06896232587017227,0.05476474526767512,false
MTT,-0.04047195901591586,-0.2490298649287025,-0.009528889539562612,0.023515521636127138,0.06573058274314472,0.0199197630125271,-0.03038100198987276,0.09949529926754296,0.08096990828785776,0.1089799591311046,true
@Rebeccask,-0.03878997841885632,0.02970295492268958,0.1018312836477968,0.07023940369099854,0.028828466412310395,0.02370963994832312,0.09679548228232236,0.03088445443028218,-0.18344175461691553,-0.013068448609232643,true
biatch,0.14484800208385168,-0.09774967662570443,-0.07568488993806456,-0.09044245259080495,0.08104886101767719,0.07255725781029952,0.07240336405820857,0.19626930038589604,-0.005722347191632254,-0.09828786768554904,false
save!,-0.04171429925452647,-0.2172459323089051,0.052851642213050845,-0.06372708273873522,0.028215885339578972,0.0037806858913282167,0.02332053183992985,-0.14702997176078358,0.06247889170511775,0.10941061494765475,false
Mell,-0.10848009519449738,0.07853144543040247,-0.09578992315792165,0.04927124916716455,-0.06067602667382103,-0.1313522432699667,-0.11442843116564932,-0.11904792565894508,-0.09344396035047565,0.1434669168345757,false
Men.,-0.10754717413212048,-0.05148632517893879,-0.1311170882271685,-0.2168823418470282,0.01822316395560058,-0.09952711646839639,0.006212714668858236,0.0964589370960228,0.11024786354601959,-0.007892588217192572,false
de-wait,0.06798514275863551,-0.22751916162036498,0.16272799565781315,0.07023409513484632,-0.09429011920121984,0.08414360967721081,0.0018293680479961791,0.07867150047876761,0.026665843209158963,0.03753892861575776,true
fish.,0.04155030693535149,-0.009686068871260738,-0.2069144098966178,-0.13699692261545895,0.021515667345277337,-0.05356424686872405,0.09042072690775671,-0.05201962590649197,0.013468738191944381,0.005324669119630567,false
*sad*,-0.08011323189073043,-0.07196807890653456,0.09941173805424112,-0.0331887886645725,0.06876835906419138,0.02025282053930696,0.016816588941203595,0.12723196446728574,0.09484883538017022,-0.051385408396274,false
mui,0.04625468546655659,-0.009243745709493123,-0.17552280980310078,-0.15009111483510654,-0.03350394217714753,-0.023542515345311626,-0.08613150948976933,-0.01852082683042246,-0.05423743751469924,0.10335306555847543,true
deviously,-0.0015857810110452904,-0.1556130631758062,0.052536286283488075,0.05181127099703743,0.05379655069475214,-0.05173281849202725,-0.12228892528244888,-0.017596500180508328,-0.03392370378243158,0.164269659083176,true
A+B,0.1778545743160797,-0.13274053302499755,0.05461167474055675,-0.08365640335466774,-0.11805791478996393,0.01718828938411908,-0.07003609557633438,0.07119160932106074,-0.005300647719623321,0.038292052263462245,true
@maddie_brady,-0.14403949729870347,-0.14041938114965954,0.22399404772324585,0.005208748374618155,0.025594622251757956,-0.03930730089710446,-0.12650284030496137,0.04075176438216596,-0.06318436278771201,-0.017055026719934675,true
freak-a-leek,-0.02517434638430693,0.16032397279011057,0.014026651086237116,-0.029283830014563292,0.031240508566695184,-0.21775006467619631,-0.07325862674938126,0.08346966346251886,0.030507174486952053,-0.026179674389281597,false
$24.00,-0.06343790181960947,0.07907991369918344,0.0045493379937310285,0.03245306368071948,0.12161397566239539,-0.012529582618106262,-0.18523752427562082,-0.10342053782906643,0.01764759891428328,0.050124023218570346,true
Dresses!,0.0629052419127752,0.07021943883251518,0.01917304637763239,0.09869960039050475,-0.10797650599221899,0.05398161111060894,0.04051081951264561,-0.14344362785361744,0.0939549877939348,0.18669931394852807,true
Trinity.,0.15534658059371154,0.00956611507750528,0.029829920924487337,0.31073398438932387,0.0215925147535377,-0.030511400898095266,-0.16662631202835207,0.04794892828107458,0.02441121170790261,-0.026169604162231963,false
greattt,-0.07592429090666442,0.0373497576144137,0.07609703361788439,-0.0037760042957472985,0.14596758082127448,-0.020402802186536444,-0.06790133949873138,-0.12237904599072157,-0.10628206696084914,-0.020737801878049078,true
Oh--i,-0.05347507351436346,-0.045631219057648505,0.09876952657155176,-0.13610720800238296,0.11394381976603052,0.06810874152024957,-0.22734876683147034,0.04137674753788632,0.14581581247230563,0.16617669396123824,true
waited&amp;waited,0.02851883944239993,-0.14784207169033514,0.054249586747582255,-0.03332349881654329,7.949119421055014E-4,0.06399714123486418,0.037877219243661525,0.08649437598157664,0.1932164208731101,0.05786386615665155,false
Portuguese,0.020700421380494726,0.06610729735599276,0.06312819375718103,-0.06396617072315476,0.04652112680129976,-0.23963060362933475,0.10757327925568282,0.05985302048482315,-0.02912802870327612,0.007343504163617213,true
night).,0.07934639014407675,-0.005722516482775416,-0.13707083034039969,-0.178755921263098,0.08411284808457037,-0.0889918366170758,0.20650179497968585,-0.026435553225783972,0.014975832073182151,-0.09808661425327667,true
arts,-0.028694360051660036,-0.060457134729865726,0.1156860918271307,0.20282550425900858,8.773302460382187E-4,-0.01977824696743337,-0.053146366367315,-0.31376477702561123,-0.0324930732448229,-0.01958178567165626,true
throath,0.035882402919684094,-0.12051140478543028,0.039134891170840055,0.026164808240434153,-0.10771966497404208,0.1633535443159294,0.04620171020742074,-0.1359840429765696,0.07204359213068547,-0.13102658914811766,false
Lovly.,-0.0445103657375024,-0.05846347966467058,-0.14238766011144627,0.021973606170283776,-0.12243880889471151,0.2739306977193584,-0.03945386030700617,0.12196072461816938,0.1236184463866821,0.13189506571870302,false
&quot;britannia,0.07379212748198477,-0.11364444756463218,-0.03824665679723696,-0.10953880302685387,0.2119096840156706,0.02335072786595861,-0.22916920591737894,-0.03518525969237848,-0.03191031832915951,0.14925718107166464,true
@inSocialMedia,0.11035708645721838,-0.18203335169639825,-0.0436992039573044,0.1570161335993001,-0.07862671282897947,-0.06679643902730577,-0.12043475929280185,0.08744525115979625,-0.17383185925945224,-0.017543861771366843,true
Sharkys,-0.05413888126669769,0.007355060099780871,-0.050917824603991906,-0.14288803765893018,0.07295125268966098,0.10371757763150018,-0.013771475927453668,0.1205223688109031,0.018985666061078904,0.039819985404305036,true
bible.,-0.02206292187504246,0.11623708392581492,0.10800493929456302,-0.13122699279373146,-0.07513558900298453,0.0634712946787985,-0.0434599267398652,0.146419605783052,0.08053549997053713,0.06953534125029347,false
Win+A.,0.08518554425363795,0.005900812266093895,0.04691551129746499,-0.03452871911649581,-0.13181817004720076,-0.0027985985280478097,-0.09949181223097309,-0.09136542817005555,-0.027059178190188937,0.024965810390331453,true
j-,0.06687161715650035,-0.02899959755546548,0.06487001509338035,0.15541283856356655,-0.10811967580782686,-0.1522378347460967,0.0914269230669518,0.031671147611065806,0.05025497255114238,-0.10685491793723603,false
hk,-0.017280465530802668,0.040100421063718715,0.0852859729548431,0.10448050980580408,-0.005782949284367255,0.07316091217658319,0.10881631217208,-0.20225466896544655,0.18401002043444759,0.15166058051646447,false
barbque,0.17499521665964957,0.07851634905364654,0.18334219448065958,-0.12708780097355873,0.019972380023920443,-0.040069118799290024,-0.05188527578284723,-0.020257584510554205,0.07121599611667104,-0.13842734217022165,true
tortilla,-0.14686138135150653,-0.05927945592201328,-0.08800146707340244,-0.07074002620163876,0.0914659954807953,0.107950855441778,-0.0854367969407524,9.914860180005431E-5,-0.09174728438766067,0.1551945257828195,false
@AGHF,-0.013474565790894179,0.04146836622446831,-0.05402221451230522,0.03810492649650986,0.06080225128934365,-0.045493320699492384,0.09320728969187123,0.13922463867691412,-0.045756491114857537,0.0825902071049196,true
quack-trainer.,-0.13775411502765578,-0.30900469941376596,-2.584508666960486E-4,-0.06125285763907756,-0.06814088598007254,-0.08714390905810175,0.016266537288319633,0.10902132346530133,-0.09746125592372835,-0.06270499508375808,false
@zoogirltoo,-0.03728633350449576,-0.018067626069972264,-0.0758215235999088,0.11723901647525499,-0.02380109123043791,-0.16516161405582172,0.18056816112198823,0.1265264444777831,0.13934339526301573,-0.21886085578859685,true
frayed,-0.22969761233766078,0.006081805846084007,0.16626525220210892,-0.027627857814103058,-0.04438853207233833,0.032227615148789676,-0.12942549944208648,0.00771432726153915,0.07383639558888631,-0.18002390922058462,false
@tumbleweed23,-0.017905798395632163,-0.08560660167758458,0.06388424820627543,0.0087722733509441,-0.03983777920124768,-0.1839078110721978,0.038253544080590896,0.22011906304248763,0.055906598411750164,0.040435636888537144,true
firehawk,-0.10839170324072486,-0.057523671632621155,0.05481173629392454,0.043476055244666904,0.05083356757508728,-0.02647200314332516,-0.17196193335172233,-0.16523939956144204,0.03554789539310267,0.29972242496654933,false
weekend..not,0.11122816624418716,0.1709002562003956,-0.09826704180673881,-0.17420294380054543,-0.08835318092663216,0.004313583241698898,-0.047622839265846,0.05521697919570634,-0.03092195755025292,0.04989418564060023,false
capable.,-0.06969447142992388,-0.04687863038123543,0.050800017410294,-0.0437050366336412,-0.05073102514780684,-0.058434728104912535,-0.02441462712680859,0.03173818399704159,0.040463081459674595,0.05765268706611259,true
@Superrdouche,0.05605818618982962,0.0953378590612106,0.03891025343566134,0.03380625687495269,0.04737360357050289,0.015452657408957335,-0.05152257517853014,-0.1135116587518659,0.024319277995936577,-0.04808172693630228,false
&quot;Poop,-0.1379777192340755,0.03756207794744458,0.06418933196808803,0.0315800024225825,0.19521299725236524,0.01192877395194849,-0.1699414390516147,0.019858107752936418,0.014837972744642323,-0.025206483541675956,true
sisas,-0.040858873443674816,-0.11837704110507818,0.025669868600395884,-0.032902991186075994,0.01834031159144553,-0.21874085091884915,0.022804537631891306,-0.17380209208224495,0.07539495213250134,0.08451065907749247,true
Visit,0.05165621342533542,-0.3137476337827677,0.2616842998893143,0.1348434195468574,0.03237649601493811,-0.022057790344644036,0.06815137077318709,-0.0787982776548216,-0.10151278127133458,0.1693464128598925,true
b-day,-0.10599053015242897,-0.07875663092180445,0.06823680667034066,0.08380968286130737,0.05411419578092193,-0.00853075250037803,0.1455235867805833,0.02795490732367784,-0.17242804336108256,0.12995720558095541,false
750-800.,-0.15871932465389424,0.07480404964790563,-0.15140607786312343,-0.07854485730929103,0.12084083662450329,0.14603769091973728,-0.021465835184795164,0.03593416767861853,-3.1886857999656253E-4,0.21600427330906802,false
roms,-0.04915647346784954,0.12345971540758333,-0.023772579488238722,0.046568079694360595,-0.03923570179674064,0.07150668009199487,-0.005044681133561022,0.08279719642597433,0.0012953913277529332,-0.0784146610322481,false
Mata,0.06331821940415537,-0.0827962758619659,0.011464283428200446,-0.004662946141074643,0.08047139594793916,-0.09800603444418676,0.013279666382182408,-0.017340149958576863,-0.10748845403734346,-0.16236071055997503,true
sounding,-0.004000108411057641,0.030931012330893872,0.05977870800349053,0.016503434006497068,0.006520500141017092,0.09657375330420931,0.06995080250425938,-0.05772090332974224,0.04632856522571764,-0.11778665590757115,false
junk-mail,-0.06944643568943645,-0.021474579239595688,-0.12655011915557318,-0.029443211782938263,0.04496149192290199,0.02092542818566494,0.030760378674552395,-0.07988636136566633,-0.07818110416342614,-0.11501065364896135,true
--Oh,-0.05158347155932909,-0.012617215759056853,-0.048930783822713944,0.02068943303630231,-0.05379557175372213,0.09450488452515186,-0.034346487438025444,0.13732541270667178,-0.14458154533859272,0.008738304357211284,false
DB2,0.020014352760755215,0.13877574676937057,-0.004308657336417569,-0.17209416665972324,0.08169580984196476,-0.026743601903169323,0.0012064211000789658,-0.07393712598615207,0.17284014944781323,-0.16421450707473215,false
Lonhchamps,0.052539798187980095,-0.0722543174934124,0.1584733768880182,0.09020742677600654,0.10102498115625273,-0.09606910618405995,0.15019171523189648,-0.04734236631950129,-0.05447367163487381,0.04059532008442199,true
CANNES!,0.05007950765510282,0.07813574687075578,0.16081008362283988,0.05752139960567976,-0.004879292213393012,-0.029937006939938268,0.07103758554767683,-0.10317216327740811,0.04194182786212707,-0.01734485401175823,true
any?,0.11944382731145291,-0.046658632008521175,0.04002293926875033,0.2277815098810445,0.040331914872082264,-0.43251692773737654,0.04502266369024162,-0.01467765006680136,0.051735257749560386,0.11126160147181871,true
@DDB_Budapest,0.02379478055349908,-0.05828031723265328,0.2633893481520545,-0.04291375279902825,0.07647978985178736,0.07480789978769889,0.13859442096981126,-0.007989653739559264,0.05523295710512532,-0.12176551689507456,false
@bubblecat,-0.12094728782464115,0.058375275696694845,-0.016261304168577472,-0.04486132592000983,-0.09390142436468729,0.20500507517987476,0.062946168604167,0.08191230626144243,-0.03552743903021093,0.034641140782852256,false
seats!,0.03520657723837485,-0.16983925398072944,-0.02435525491982565,-0.01396497163513699,0.06435791391378519,-0.1973687127645502,-0.08835106022968785,-0.08870659819134641,6.83266545336443E-4,0.006761302827642822,true
looms,-0.09904189568204269,-0.04460735211865594,-0.09505642453890328,-0.07126776359813994,-0.016139368039700314,0.03611742864795738,0.09674273791434114,0.11092126001325688,0.16272270904300704,-0.035747437034940946,false
will-less,0.05335345310819192,0.0033436758372479914,0.07952487083993617,0.04204455265655393,-0.12050204815776697,0.0279846251281644,0.0699593582778732,-0.10596682058732929,0.02971167842990774,-0.13156527675276788,false
@Brandonroberts1,-0.04266460150775576,0.16564571903732053,-0.02069319639098465,0.05077194623444006,0.19105994509143143,0.03143739173892369,-0.027354763477998655,-0.08749078288803282,0.031775428939051824,0.10164137084042912,false
madison,-0.176481826249868,0.002141068144665317,0.0271140813108232,-0.1100768683831476,-0.04646187410462798,-0.052330710226183595,0.030637436986160723,0.11712778559502088,-0.13459116610204244,-0.025439746419695812,true
pre-theater,0.07135765131417923,-0.05184977451625849,0.030510192000232396,-0.08277333671665686,0.09223217766642865,0.08535802672492879,0.0133363519784583,0.10853625062943134,-0.031318305564593814,-0.00909201554359367,true
waveforms,-0.0588307592320521,-0.09268764779236313,0.181090101058561,0.02438805724071723,-0.13109913392836056,0.03037272642548683,0.09316170681237597,-0.11326842608030427,0.12459434327594561,0.14786458899155078,false
WINNER!,0.13670226602943053,0.0212111587352382,-0.012849095446561995,0.19084865947542567,-0.04572964214837519,-0.17056536143830325,0.06931457036264363,0.1182730770206668,0.08992811987067101,-0.06309358426902094,true
bkfst,-0.02331170412807442,-0.05768775424893565,0.13682910101406964,-0.135547644572762,-0.0947790785465336,-0.02875493632818791,-0.10137453998451593,-0.018488130331124987,-0.1389406062025591,0.12419967738430888,true
Andrews,-0.008397478659547371,0.07806185311363228,-0.10347889253604997,0.12127412237955805,0.013363299486340565,-0.054311028667632086,0.01640841402775336,0.10285764897494602,-0.058903754242668194,0.0239178672555003,true
Omg...,-0.19272479066539638,0.2204043547936825,0.02161239382885861,-0.044035306402211545,-0.026571311848952676,-0.1061197949901475,0.1115155093309632,-0.017316458334026775,-0.08213845502109304,-0.12917106473182421,true
LMAOOO,0.1375885803114928,0.09822782353137229,-0.05468367929243695,0.1174460231348892,-0.16755154327635993,-0.19189030706811241,-0.005486600312732648,-0.0013425040090204827,-0.029440060059650948,0.030506512357290468,true
WINDOWS,-0.05541008030370226,0.07200874890952202,0.008918250459649156,-0.039188272610141094,-0.13460669164942052,0.04511168126491656,0.11410279557385357,0.022940973933755465,0.20816024496230037,0.040379415807702615,false
ok-140,-0.1909923030505761,-0.05072329146947458,0.15681809838354852,-0.01424091499012627,-0.28354087575255976,0.03423047794185849,0.040739981511073796,-0.09869160403258649,0.08405097670275492,-0.01816292596249734,false
baller,-0.003165752874400048,-0.04662217875858404,-0.28583959537302644,0.04010996375916409,0.1527971961177447,-0.039083010705316,0.09686963527540728,-0.03797361293519561,-0.08889197454050375,0.14001000463505164,true
